D:\workspaces\BackEnd\Noah\noah-utils\src\main\java\com\noah\base\VerifyCode.java
D:\workspaces\BackEnd\Noah\noah-utils\src\main\java\com\noah\base\Result.java
D:\workspaces\BackEnd\Noah\noah-utils\src\main\java\com\noah\base\MyMetaObjectHandler.java
D:\workspaces\BackEnd\Noah\noah-utils\src\main\java\com\noah\base\NoPage.java
D:\workspaces\BackEnd\Noah\noah-utils\src\main\java\com\noah\base\IpUtil.java
D:\workspaces\BackEnd\Noah\noah-utils\src\main\java\com\noah\base\JacksonObjectMapper.java
D:\workspaces\BackEnd\Noah\noah-utils\src\main\java\com\noah\base\JwtUtil.java
D:\workspaces\BackEnd\Noah\noah-utils\src\main\java\com\noah\base\MD5.java
D:\workspaces\BackEnd\Noah\noah-utils\src\main\java\com\noah\base\ResultEnum.java
